{"name":"Asia","code":"ASIA","count":1}
{"name":"Commonwealth of Independent States","code":"CIS","count":1}
{"name":"Europe","code":"EUR","count":2}
{"name":"Europe, the Middle East and Africa","code":"EMEA","count":2}
{"name":"Worldwide","code":"INT","count":1}
{"name":"Undefined","code":"UNDEFINED","count":0}
